CPF;Nome;Idade;Sexo;Nacionalidade
11111111111;Linus Torvalds;56;M;Estadunidense
22222222222;Steve Jobs;63;M;Estadunidense
33333333333;Grace Hoper;F;Estadunidense
44444444444;Tiago P;27;M;Brasileiro
